---
http_interactions:
- request:
    method: get
    uri: https://api.bestbuy.com/v1/stores((area(80202,25)))?apiKey=7a3heu7emrjz6qbsugmepbv6&format=json&show=storeId,longName,city,distance,phone,storeType
    body:
      encoding: US-ASCII
      string: ''
    headers:
      Accept-Encoding:
      - gzip;q=1.0,deflate;q=0.6,identity;q=0.3
      Accept:
      - "*/*"
      User-Agent:
      - Ruby
  response:
    status:
      code: 200
      message: OK
    headers:
      Access-Control-Allow-Headers:
      - origin, x-requested-with, accept
      Access-Control-Allow-Methods:
      - GET
      Access-Control-Allow-Origin:
      - "*"
      Access-Control-Max-Age:
      - '3628800'
      Content-Type:
      - application/json; charset=UTF-8
      Date:
      - Thu, 13 Apr 2017 17:13:12 GMT
      Server:
      - Best Buy Public APIs
      X-Cache-Hit:
      - 'true'
      Content-Length:
      - '1675'
      Connection:
      - keep-alive
    body:
      encoding: UTF-8
      string: '{"from":1,"to":10,"currentPage":1,"total":16,"totalPages":2,"queryTime":"0.030","totalTime":"0.040","partial":false,"canonicalUrl":"/v1/stores((area(\"80202\",25)))?show=storeId,longName,city,distance,phone,storeType&format=json&apiKey=7a3heu7emrjz6qbsugmepbv6","stores":[{"storeId":2740,"longName":"BEST
        BUY MOBILE - CHERRY CREEK SHOPPING CENTER","city":"DENVER","distance":3.45,"phone":"303-270-9189","storeType":"Mobile
        SAS"},{"storeId":1224,"longName":"BEST BUY - BELMAR","city":"LAKEWOOD","distance":5.31,"phone":"303-742-8039","storeType":"Big
        Box"},{"storeId":211,"longName":"BEST BUY - COLORADO BLVD","city":"DENVER","distance":5.59,"phone":"303-758-5805","storeType":"Big
        Box"},{"storeId":382,"longName":"BEST BUY - DENVER WEST","city":"LAKEWOOD","distance":8.39,"phone":"303-273-5617","storeType":"Big
        Box"},{"storeId":209,"longName":"BEST BUY - WESTMINSTER","city":"WESTMINSTER","distance":8.52,"phone":"303-426-4434","storeType":"Big
        Box"},{"storeId":1416,"longName":"BEST BUY - NORTHGLENN","city":"DENVER","distance":9.14,"phone":"303-252-8677","storeType":"Big
        Box"},{"storeId":2730,"longName":"BEST BUY MOBILE - TOWN CENTER AT AURORA","city":"AURORA","distance":9.73,"phone":"303-326-0848","storeType":"Mobile
        SAS"},{"storeId":217,"longName":"BEST BUY - AURORA","city":"AURORA","distance":9.79,"phone":"303-338-5797","storeType":"Big
        Box"},{"storeId":210,"longName":"BEST BUY - LITTLETON","city":"LAKEWOOD","distance":10.44,"phone":"303-932-7830","storeType":"Big
        Box"},{"storeId":1171,"longName":"BEST BUY - SOUTHGLENN","city":"CENTENNIAL","distance":11.02,"phone":"303-797-3246","storeType":"Big
        Box"}],"warnings":"Distances are in terms of miles (default)"}'
    http_version: 
  recorded_at: Thu, 13 Apr 2017 17:12:36 GMT
recorded_with: VCR 3.0.3
